[
    {
        "name": "Cozy-stack",
        "rootPath": "/home/julien/dev/gocode/src/github.com/cozy/cozy-stack/",
        "paths": [],
        "group": ""
    },
    {
        "name": "Cozy-misc",
        "rootPath": "/home/julien/dev/Cozy/Misc/",
        "paths": [],
        "group": ""
    },
    {
        "name": "Configfiles",
        "rootPath": "/home/julien/dev/configfiles/",
        "paths": [],
        "group": ""
    },
    {
        "name": "SMM Badminton website",
        "rootPath": "/home/julien/dev/smmbadminton-website/",
        "paths": [],
        "group": ""
    },
    {
        "name": "PhD Notes",
        "rootPath": "/home/julien/PhD/Notes",
        "paths": [],
        "group": ""
    },
    {
        "name": "pdqp-python",
        "rootPath": "/home/julien/dev/PhD/pdqp-python",
        "paths": [],
        "group": ""
    },
    {
        "name": "pdqp-rust",
        "rootPath": "/home/julien/dev/PhD/pdqp-rust",
        "paths": [],
        "group": ""
    },
    {
        "name": "lib-python",
        "rootPath": "/home/julien/dev/lib-python/",
        "paths": [],
        "group": ""
    }
]
